<?xml version="1.0" encoding="UTF-8" standalone="no"?>
<!-- Created with Inkscape (http://www.inkscape.org/) -->

<svg
   xmlns:dc="http://purl.org/dc/elements/1.1/"
   xmlns:cc="http://creativecommons.org/ns#"
   xmlns:rdf="http://www.w3.org/1999/02/22-rdf-syntax-ns#"
   xmlns:svg="http://www.w3.org/2000/svg"
   xmlns="http://www.w3.org/2000/svg"
   xmlns:sodipodi="http://sodipodi.sourceforge.net/DTD/sodipodi-0.dtd"
   xmlns:inkscape="http://www.inkscape.org/namespaces/inkscape"
   width="500"
   height="500"
   viewBox="0 0 132.29167 132.29166"
   version="1.1"
   id="svg8"
   inkscape:version="0.92.3 (2405546, 2018-03-11)"
   sodipodi:docname="main.svg">
  <defs
     id="defs2" />
  <sodipodi:namedview
     id="base"
     pagecolor="#ffffff"
     bordercolor="#666666"
     borderopacity="1.0"
     inkscape:pageopacity="0.0"
     inkscape:pageshadow="2"
     inkscape:zoom="0.98994949"
     inkscape:cx="-262.25844"
     inkscape:cy="189.14254"
     inkscape:document-units="mm"
     inkscape:current-layer="layer1"
     showgrid="true"
     units="px"
     inkscape:window-width="1920"
     inkscape:window-height="1006"
     inkscape:window-x="0"
     inkscape:window-y="44"
     inkscape:window-maximized="1"
     inkscape:snap-grids="true"
     inkscape:snap-to-guides="false"
     inkscape:snap-others="false"
     inkscape:snap-global="true">
    <inkscape:grid
       type="xygrid"
       id="grid4758" />
  </sodipodi:namedview>
  <metadata
     id="metadata5">
    <rdf:RDF>
      <cc:Work
         rdf:about="">
        <dc:format>image/svg+xml</dc:format>
        <dc:type
           rdf:resource="http://purl.org/dc/dcmitype/StillImage" />
        <dc:title />
      </cc:Work>
    </rdf:RDF>
  </metadata>
  <g
     inkscape:label="レイヤー 1"
     inkscape:groupmode="layer"
     id="layer1"
     transform="translate(0,-164.70834)">
    <g
       id="g4834">
      <rect
         ry="1.1013704e-05"
         y="165.3197"
         x="148.16666"
         height="42.333332"
         width="132.29167"
         id="rect4760"
         style="fill:#aaaaaa;fill-opacity:1;stroke:none;stroke-width:0.26458332;stroke-linecap:round;stroke-miterlimit:4;stroke-dasharray:none;stroke-opacity:1" />
      <rect
         ry="1.1013704e-05"
         y="207.65303"
         x="148.16666"
         height="47.625"
         width="132.29167"
         id="rect4762"
         style="fill:#d05545;fill-opacity:1;stroke:none;stroke-width:0.26458332;stroke-linecap:round;stroke-miterlimit:4;stroke-dasharray:none;stroke-opacity:1" />
      <rect
         ry="1.1013704e-05"
         y="255.27803"
         x="148.16666"
         height="42.333332"
         width="132.29167"
         id="rect4764"
         style="fill:#ffffff;fill-opacity:1;stroke:none;stroke-width:0.26458332;stroke-linecap:round;stroke-miterlimit:4;stroke-dasharray:none;stroke-opacity:1" />
    </g>
    <rect
       style="fill:#ffffff;fill-opacity:1;stroke:none;stroke-width:0.26458332;stroke-linecap:round;stroke-miterlimit:4;stroke-dasharray:none;stroke-opacity:1"
       id="rect4787"
       width="132.29167"
       height="42.333332"
       x="0"
       y="207.04167"
       ry="1.1013704e-05" />
    <g
       aria-label="THE SIDEWINDER"
       transform="scale(0.95897854,1.0427762)"
       style="font-style:normal;font-variant:normal;font-weight:900;font-stretch:normal;font-size:23.44469833px;line-height:1.25;font-family:Roboto;-inkscape-font-specification:'Roboto, Heavy';font-variant-ligatures:normal;font-variant-caps:normal;font-variant-numeric:normal;font-feature-settings:normal;text-align:start;letter-spacing:0px;word-spacing:2.33371902px;writing-mode:lr-tb;text-anchor:start;fill:#000000;fill-opacity:1;stroke:none;stroke-width:0.58611655"
       id="text4768">
      <g
         id="g4811"
         transform="translate(1.1148093)">
        <g
           id="g4826">
          <path
             inkscape:connector-curvature="0"
             d="M 4.5736924,219.43951 V 203.16889 H 2.1823332 v -3.86837 H 10.99754 v 3.86837 H 8.6061806 v 16.27062 z"
             style="font-style:normal;font-variant:normal;font-weight:normal;font-stretch:normal;font-size:23.44469833px;font-family:Anton;-inkscape-font-specification:'Anton, Normal';font-variant-ligatures:normal;font-variant-caps:normal;font-variant-numeric:normal;font-feature-settings:normal;text-align:start;letter-spacing:-0.55562502px;word-spacing:1.95527077px;writing-mode:lr-tb;text-anchor:start;fill:#212622;fill-opacity:1;stroke-width:0.58611655"
             id="path4771" />
          <path
             inkscape:connector-curvature="0"
             d="m 11.578617,219.43951 v -20.13899 h 4.009043 v 7.19752 h 1.899021 v -7.19752 h 4.009043 v 20.13899 h -4.009043 v -9.14343 H 15.58766 v 9.14343 z"
             style="font-style:normal;font-variant:normal;font-weight:normal;font-stretch:normal;font-size:23.44469833px;font-family:Anton;-inkscape-font-specification:'Anton, Normal';font-variant-ligatures:normal;font-variant-caps:normal;font-variant-numeric:normal;font-feature-settings:normal;text-align:start;letter-spacing:-0.55562502px;word-spacing:1.95527077px;writing-mode:lr-tb;text-anchor:start;fill:#212622;fill-opacity:1;stroke-width:0.58611655"
             id="path4773" />
          <path
             inkscape:connector-curvature="0"
             d="m 22.69955,219.43951 v -20.13899 h 8.064976 v 3.89182 h -3.962154 v 3.91526 h 3.798042 v 3.79804 h -3.798042 v 4.61861 h 4.220046 v 3.91526 z"
             style="font-style:normal;font-variant:normal;font-weight:normal;font-stretch:normal;font-size:23.44469833px;font-family:Anton;-inkscape-font-specification:'Anton, Normal';font-variant-ligatures:normal;font-variant-caps:normal;font-variant-numeric:normal;font-feature-settings:normal;text-align:start;letter-spacing:-0.55562502px;word-spacing:1.95527077px;writing-mode:lr-tb;text-anchor:start;fill:#212622;fill-opacity:1;stroke-width:0.58611655"
             id="path4775" />
          <path
             inkscape:connector-curvature="0"
             d="m 43.482919,219.62707 q -2.74303,0 -3.962154,-1.35979 -1.219124,-1.35979 -1.219124,-4.38416 v -1.96935 h 3.962154 v 2.50858 q 0,1.50046 0.961232,1.50046 0.539228,0 0.750231,-0.30478 0.211002,-0.32823 0.211002,-1.07846 0,-0.98468 -0.234447,-1.61768 -0.234447,-0.65645 -0.609562,-1.07846 -0.351671,-0.44545 -1.289459,-1.35979 l -1.734907,-1.73491 q -2.016244,-1.96935 -2.016244,-4.36071 0,-2.57892 1.172235,-3.91527 1.195679,-1.35979 3.469815,-1.35979 2.719585,0 3.915265,1.45357 1.195679,1.43013 1.195679,4.50138 h -4.102822 l -0.02345,-1.38323 q 0,-0.39856 -0.234447,-0.63301 -0.211002,-0.23445 -0.609562,-0.23445 -0.468894,0 -0.703341,0.25789 -0.234447,0.2579 -0.234447,0.70335 0,0.98467 1.125346,2.03968 l 2.34447,2.2507 q 0.820564,0.79712 1.359792,1.5239 0.539228,0.70334 0.867454,1.68802 0.328226,0.96123 0.328226,2.29758 0,2.97748 -1.101901,4.52483 -1.078456,1.5239 -3.587039,1.5239 z"
             style="font-style:normal;font-variant:normal;font-weight:normal;font-stretch:normal;font-size:23.44469833px;font-family:Anton;-inkscape-font-specification:'Anton, Normal';font-variant-ligatures:normal;font-variant-caps:normal;font-variant-numeric:normal;font-feature-settings:normal;text-align:start;letter-spacing:-0.55562502px;word-spacing:1.95527077px;writing-mode:lr-tb;text-anchor:start;fill:#212622;fill-opacity:1;stroke-width:0.58611655"
             id="path4777" />
          <path
             inkscape:connector-curvature="0"
             d="m 48.763559,219.43951 v -20.13899 h 3.891819 v 20.13899 z"
             style="font-style:normal;font-variant:normal;font-weight:normal;font-stretch:normal;font-size:23.44469833px;font-family:Anton;-inkscape-font-specification:'Anton, Normal';font-variant-ligatures:normal;font-variant-caps:normal;font-variant-numeric:normal;font-feature-settings:normal;text-align:start;letter-spacing:-0.55562502px;word-spacing:1.95527077px;writing-mode:lr-tb;text-anchor:start;fill:#212622;fill-opacity:1;stroke-width:0.58611655"
             id="path4779" />
          <path
             inkscape:connector-curvature="0"
             d="m 53.707182,199.30052 h 5.556393 q 2.156912,0 3.235368,1.19568 1.078457,1.19568 1.101901,3.54015 l 0.04689,9.42477 q 0.02344,2.97747 -1.031567,4.47793 -1.055012,1.50046 -3.49326,1.50046 h -5.415725 z m 4.759273,16.5754 q 1.101901,0 1.101901,-1.07846 v -10.386 q 0,-0.67989 -0.117223,-1.00812 -0.09378,-0.35167 -0.375116,-0.46889 -0.281336,-0.11723 -0.867453,-0.11723 h -0.44545 v 13.0587 z"
             style="font-style:normal;font-variant:normal;font-weight:normal;font-stretch:normal;font-size:23.44469833px;font-family:Anton;-inkscape-font-specification:'Anton, Normal';font-variant-ligatures:normal;font-variant-caps:normal;font-variant-numeric:normal;font-feature-settings:normal;text-align:start;letter-spacing:-0.55562502px;word-spacing:1.95527077px;writing-mode:lr-tb;text-anchor:start;fill:#212622;fill-opacity:1;stroke-width:0.58611655"
             id="path4781" />
          <path
             inkscape:connector-curvature="0"
             d="m 64.690744,219.43951 v -20.13899 h 8.064976 v 3.89182 h -3.962154 v 3.91526 h 3.798041 v 3.79804 h -3.798041 v 4.61861 h 4.220046 v 3.91526 z"
             style="font-style:normal;font-variant:normal;font-weight:normal;font-stretch:normal;font-size:23.44469833px;font-family:Anton;-inkscape-font-specification:'Anton, Normal';font-variant-ligatures:normal;font-variant-caps:normal;font-variant-numeric:normal;font-feature-settings:normal;text-align:start;letter-spacing:-0.55562502px;word-spacing:1.95527077px;writing-mode:lr-tb;text-anchor:start;fill:#212622;fill-opacity:1;stroke-width:0.58611655"
             id="path4783" />
          <path
             d="m 75.060182,219.43951 -1.86101,-20.13899 h 3.398367 l 0.970963,12.70702 0.970961,-12.70702 h 3.23654 l 0.930504,12.70702 0.930506,-12.70702 h 3.438824 l -1.901468,20.13899 h -4.167045 l -0.86982,-9.7061 -0.829363,9.7061 z"
             style="font-style:normal;font-variant:normal;font-weight:normal;font-stretch:normal;font-size:23.44469833px;font-family:Anton;-inkscape-font-specification:'Anton, Normal';font-variant-ligatures:normal;font-variant-caps:normal;font-variant-numeric:normal;font-feature-settings:normal;text-align:start;letter-spacing:-0.55562502px;word-spacing:1.95527077px;writing-mode:lr-tb;text-anchor:start;fill:#212622;fill-opacity:1;stroke-width:0.54443014"
             id="path4785"
             inkscape:connector-curvature="0" />
          <path
             d="m 87.537606,219.43951 v -20.13899 h 3.89182 v 20.13899 z"
             style="font-style:normal;font-variant:normal;font-weight:normal;font-stretch:normal;font-size:23.44469833px;font-family:Anton;-inkscape-font-specification:'Anton, Normal';font-variant-ligatures:normal;font-variant-caps:normal;font-variant-numeric:normal;font-feature-settings:normal;text-align:start;letter-spacing:-0.55562502px;word-spacing:1.95527077px;writing-mode:lr-tb;text-anchor:start;fill:#212622;fill-opacity:1;stroke-width:0.58611655"
             id="path4787"
             inkscape:connector-curvature="0" />
          <path
             d="m 92.481229,219.43951 v -20.13899 h 4.149712 l 1.852131,9.63577 v -9.63577 h 3.891818 v 20.13899 h -3.938708 l -2.016243,-10.08122 v 10.08122 z"
             style="font-style:normal;font-variant:normal;font-weight:normal;font-stretch:normal;font-size:23.44469833px;font-family:Anton;-inkscape-font-specification:'Anton, Normal';font-variant-ligatures:normal;font-variant-caps:normal;font-variant-numeric:normal;font-feature-settings:normal;text-align:start;letter-spacing:-0.55562502px;word-spacing:1.95527077px;writing-mode:lr-tb;text-anchor:start;fill:#212622;fill-opacity:1;stroke-width:0.58611655"
             id="path4789"
             inkscape:connector-curvature="0" />
          <path
             d="m 103.60216,199.30052 h 5.55639 q 2.15692,0 3.23537,1.19568 1.07846,1.19568 1.1019,3.54015 l 0.0469,9.42477 q 0.0234,2.97747 -1.03156,4.47793 -1.05502,1.50046 -3.49326,1.50046 h -5.41573 z m 4.75927,16.5754 q 1.10191,0 1.10191,-1.07846 v -10.386 q 0,-0.67989 -0.11723,-1.00812 -0.0938,-0.35167 -0.37511,-0.46889 -0.28134,-0.11723 -0.86746,-0.11723 h -0.44545 v 13.0587 z"
             style="font-style:normal;font-variant:normal;font-weight:normal;font-stretch:normal;font-size:23.44469833px;font-family:Anton;-inkscape-font-specification:'Anton, Normal';font-variant-ligatures:normal;font-variant-caps:normal;font-variant-numeric:normal;font-feature-settings:normal;text-align:start;letter-spacing:-0.55562502px;word-spacing:1.95527077px;writing-mode:lr-tb;text-anchor:start;fill:#212622;fill-opacity:1;stroke-width:0.58611655"
             id="path4791"
             inkscape:connector-curvature="0" />
          <path
             d="m 114.58572,219.43951 v -20.13899 h 8.06498 v 3.89182 h -3.96216 v 3.91526 h 3.79804 v 3.79804 h -3.79804 v 4.61861 h 4.22005 v 3.91526 z"
             style="font-style:normal;font-variant:normal;font-weight:normal;font-stretch:normal;font-size:23.44469833px;font-family:Anton;-inkscape-font-specification:'Anton, Normal';font-variant-ligatures:normal;font-variant-caps:normal;font-variant-numeric:normal;font-feature-settings:normal;text-align:start;letter-spacing:-0.55562502px;word-spacing:1.95527077px;writing-mode:lr-tb;text-anchor:start;fill:#212622;fill-opacity:1;stroke-width:0.58611655"
             id="path4793"
             inkscape:connector-curvature="0" />
          <path
             d="m 123.69188,199.30052 h 6.1894 q 1.47701,0 2.27413,0.67989 0.82057,0.65646 1.1019,1.87558 0.28134,1.19568 0.28134,3.07126 0,1.71146 -0.44545,2.67269 -0.44545,0.96123 -1.54735,1.33635 0.91434,0.18756 1.3129,0.91434 0.42201,0.72679 0.42201,1.96936 l -0.0469,7.61952 h -3.93871 v -7.87741 q 0,-0.84401 -0.32823,-1.07846 -0.32822,-0.23445 -1.19568,-0.23445 v 9.19032 h -4.07937 z m 5.06405,7.45541 q 0.84401,0 0.84401,-1.82868 0,-0.79712 -0.0703,-1.19568 -0.0703,-0.39856 -0.25789,-0.53923 -0.18755,-0.16411 -0.53922,-0.16411 h -0.93779 v 3.7277 z"
             style="font-style:normal;font-variant:normal;font-weight:normal;font-stretch:normal;font-size:23.44469833px;font-family:Anton;-inkscape-font-specification:'Anton, Normal';font-variant-ligatures:normal;font-variant-caps:normal;font-variant-numeric:normal;font-feature-settings:normal;text-align:start;letter-spacing:-0.55562502px;word-spacing:1.95527077px;writing-mode:lr-tb;text-anchor:start;fill:#212622;fill-opacity:1;stroke-width:0.58611655"
             id="path4795"
             inkscape:connector-curvature="0" />
        </g>
      </g>
    </g>
    <text
       xml:space="preserve"
       style="font-style:normal;font-weight:normal;font-size:3.90159488px;line-height:1.25;font-family:sans-serif;letter-spacing:0px;word-spacing:0.50800002px;fill:#222222;fill-opacity:1;stroke:none;stroke-width:0.09753987;"
       x="1.6142725"
       y="232.89742"
       id="text4772"><tspan
         sodipodi:role="line"
         id="tspan4770"
         x="1.6142725"
         y="232.89742"
         style="word-spacing:0.50800002px;stroke-width:0.09753987;fill:#222222;fill-opacity:1;">J<tspan
   style="letter-spacing:-0.1984375px;word-spacing:0.50800002px;fill:#222222;fill-opacity:1;"
   id="tspan5342">OE</tspan> HE<tspan
   style="letter-spacing:-0.15610418px;word-spacing:0.29368749px;fill:#222222;fill-opacity:1;"
   id="tspan5376">NDE<tspan
   style="letter-spacing:-0.00529167px;fill:#222222;fill-opacity:1;"
   id="tspan5380">RSON</tspan></tspan></tspan></text>
    <text
       xml:space="preserve"
       style="font-style:normal;font-weight:normal;font-size:4.11826468px;line-height:1.25;font-family:sans-serif;letter-spacing:-0.3889375px;word-spacing:1.87325013px;fill:#222222;fill-opacity:1;stroke:none;stroke-width:0.10295662;"
       x="40.317894"
       y="232.97693"
       id="text4776"><tspan
         sodipodi:role="line"
         id="tspan4774"
         x="40.317894"
         y="232.97693"
         style="letter-spacing:-0.3889375px;word-spacing:1.87325013px;stroke-width:0.10295662;fill:#222222;fill-opacity:1;">BA<tspan
   style="letter-spacing:-0.06879167px;fill:#222222;fill-opacity:1;"
   id="tspan5034">RR</tspan><tspan
   style="letter-spacing:-0.42862499px;fill:#222222;fill-opacity:1;"
   id="tspan4792">Y</tspan><tspan
   style="word-spacing:1.29381239px;fill:#222222;fill-opacity:1;"
   id="tspan5036"> </tspan>HA<tspan
   style="letter-spacing:-0.22489583px;fill:#222222;fill-opacity:1;"
   id="tspan5232">R</tspan><tspan
   id="tspan5340"
   style="letter-spacing:-0.11906251px;fill:#222222;fill-opacity:1;">RIS</tspan></tspan></text>
    <text
       xml:space="preserve"
       style="font-style:normal;font-weight:normal;font-size:3.96969628px;line-height:1.25;font-family:sans-serif;letter-spacing:-0.13758333px;word-spacing:0.55827081px;fill:#222222;fill-opacity:1;stroke:none;stroke-width:0.0992424;"
       x="71.243423"
       y="232.92241"
       id="text4780"><tspan
         sodipodi:role="line"
         id="tspan4778"
         x="71.243423"
         y="232.92241"
         style="letter-spacing:-0.13758333px;word-spacing:0.55827081px;stroke-width:0.0992424;fill:#222222;fill-opacity:1;">BOB CRENSHAW </tspan></text>
    <text
       xml:space="preserve"
       style="font-style:normal;font-weight:normal;font-size:4.14553118px;line-height:1.25;font-family:sans-serif;letter-spacing:-0.17462499px;word-spacing:0.63235426px;fill:#222222;fill-opacity:1;stroke:none;stroke-width:0.10363828;"
       x="102.11917"
       y="232.98694"
       id="text4784"><tspan
         sodipodi:role="line"
         id="tspan4782"
         x="102.11917"
         y="232.98694"
         style="letter-spacing:-0.17462499px;word-spacing:0.63235426px;stroke-width:0.10363828;fill:#222222;fill-opacity:1;">BILLY HIGGINS</tspan></text>
    <text
       xml:space="preserve"
       style="font-style:normal;font-weight:normal;font-size:22.55007553px;line-height:1.25;font-family:sans-serif;letter-spacing:-0.91801745px;word-spacing:6.85747957px;fill:#000000;fill-opacity:1;stroke:none;stroke-width:0.56375188"
       x="0.51368517"
       y="240.60843"
       id="text4788"
       transform="scale(0.9568628,1.0450819)"><tspan
         sodipodi:role="line"
         id="tspan4786"
         x="0.51368517"
         y="240.60843"
         style="letter-spacing:-0.91801745px;word-spacing:6.85747957px;stroke-width:0.56375188;fill:#d05545;fill-opacity:1">LEE MORGAN</tspan></text>
    <rect
       style="fill:#aaaaaa;fill-opacity:1;stroke:none;stroke-width:0.26458332;stroke-linecap:round;stroke-miterlimit:4;stroke-dasharray:none;stroke-opacity:1"
       id="rect5387"
       width="132.29167"
       height="42.333332"
       x="0"
       y="164.70834"
       ry="1.1013704e-05" />
    <rect
       ry="1.1013704e-05"
       y="255.8006"
       x="0"
       height="42.333332"
       width="132.29167"
       id="rect4785"
       style="fill:#ffffff;fill-opacity:1;stroke:none;stroke-width:0.26458332;stroke-linecap:round;stroke-miterlimit:4;stroke-dasharray:none;stroke-opacity:1" />
  </g>
</svg>
